tour_de_france.R
…
View(tour_de_france)

# remove na from the time_overall
tdf <- tour_de_france %>% filter(!is.na(time_overall)) %>%
  mutate(time_overall = round(time_overall))
tdf

## # A tibble: 98 x 19
##    edition start_date winner_name winner_team distance time_overall time_margin
##      <dbl> <date>     <chr>       <chr>          <dbl>        <dbl>       <dbl>
##  1       1 1903-07-01 Maurice Ga~ La Franai~     2428           95      2.99  
##  2       2 1904-07-02 Henri Corn~ Conte           2428           96      2.27  
##  3      11 1913-06-29 Philippe T~ PeugeotWo~     5287          198      0.136 
##  4      12 1914-06-28 Philippe T~ PeugeotWo~     5380          200      0.0169
##  5      13 1919-06-29 Firmin Lam~ La Sportive     5560          231      1.72  
##  6      14 1920-06-27 Philippe T~ La Sportive     5503          229      0.966 
##  7      15 1921-06-26 Lon Scieur La Sportive     5485          222      0.305 
##  8      16 1922-06-25 Firmin Lam~ PeugeotWo~     5375          222      0.695 
##  9      17 1923-06-24 Henri Pli~ AutomotoH~     5386          222      0.508 
## 10      18 1924-06-22 Ottavio Bo~ Automoto        5425          226      0.593 
## # ... with 88 more rows, and 12 more variables: stage_wins <dbl>,
## #   stages_led <dbl>, height <dbl>, weight <dbl>, age <dbl>, born <date>,
## #   died <date>, full_name <chr>, nickname <chr>, birth_town <chr>,
## #   birth_country <chr>, nationality <chr>
…
